<svg width="237" height="40" viewBox="0 0 237 40" fill="none" xmlns="http://www.w3.org/2000/svg">
<g clip-path="url(#clip0_513_5002)">
<path d="M46.7755 25.7778C46.8025 25.6228 46.7676 25.4632 46.6785 25.3343C46.5893 25.2053 46.4533 25.1175 46.3002 25.0902C46.2259 25.0798 46.1503 25.086 46.0786 25.1083C38.72 26.9156 31.0933 27.3181 23.589 26.2953C13.3824 24.9092 6.56013 20.7944 0.970786 15.7711C0.886525 15.6742 0.771503 15.6102 0.645585 15.5901C0.568839 15.5832 0.491474 15.5916 0.41795 15.615C0.344427 15.6383 0.276186 15.6761 0.217101 15.7262C0.158017 15.7763 0.10925 15.8377 0.0736193 15.9069C0.0379889 15.976 0.0161875 16.0517 0.00944715 16.1294C-0.00314905 16.2049 -0.00314905 16.2819 0.00944715 16.3574C2.35025 26.8816 9.27975 38.097 21.8093 39.7944C32.0624 41.1841 41.7615 35.4117 46.7005 26.042C46.7445 25.9606 46.7701 25.8704 46.7755 25.7778Z" fill="#F8961F"/>
<path d="M15.5803 0.382854C15.8197 -0.149147 16.1342 -0.123812 16.2951 0.44076L17.0598 3.336C17.0916 3.46705 17.1509 3.58964 17.2336 3.69546C17.3162 3.80127 17.4205 3.88784 17.5391 3.94929C17.6577 4.01073 17.788 4.04562 17.9212 4.05158C18.0543 4.05753 18.1871 4.03442 18.3107 3.98382L21.0732 2.91981C21.6128 2.71353 21.8201 2.95601 21.5306 3.46267L20.0511 6.05392C19.9815 6.1692 19.9373 6.29836 19.9216 6.43254C19.9059 6.56672 19.9191 6.70274 19.9602 6.8313C20.0012 6.95986 20.0693 7.0779 20.1596 7.17735C20.2499 7.27679 20.3604 7.35528 20.4835 7.40744L23.1781 8.6343C23.707 8.87316 23.6784 9.19525 23.1209 9.35811L20.2619 10.1326C20.1325 10.1648 20.0114 10.2248 19.907 10.3085C19.8025 10.3923 19.717 10.4978 19.6563 10.6179C19.5956 10.7381 19.5612 10.87 19.5553 11.0048C19.5494 11.1396 19.5722 11.2742 19.6222 11.3993L20.6729 14.1968C20.8766 14.7433 20.6372 14.9496 20.1368 14.66L17.578 13.1617C17.4644 13.0912 17.3371 13.0463 17.2048 13.0301C17.0724 13.014 16.9382 13.027 16.8113 13.0682C16.6844 13.1095 16.5678 13.178 16.4694 13.2691C16.3711 13.3602 16.2933 13.4717 16.2414 13.596L15.03 16.3284C14.7941 16.8604 14.4796 16.8351 14.3152 16.2705L13.5504 13.3753C13.5186 13.2442 13.4594 13.1216 13.3767 13.0158C13.294 12.91 13.1898 12.8234 13.0712 12.762C12.9525 12.7005 12.8222 12.6656 12.6891 12.6597C12.556 12.6537 12.4231 12.6768 12.2996 12.7274L9.54782 13.777C9.00818 13.9833 8.80447 13.7408 9.09395 13.2341L10.5735 10.6429C10.6425 10.5274 10.6861 10.3983 10.7015 10.2643C10.7169 10.1303 10.7036 9.99446 10.6626 9.86609C10.6216 9.73771 10.5538 9.61976 10.4638 9.52025C10.3738 9.42074 10.2637 9.34199 10.1411 9.28935L7.44288 8.06249C6.91753 7.82363 6.94256 7.50153 7.50007 7.33868L10.3591 6.5642C10.486 6.52987 10.6042 6.46857 10.706 6.38437C10.8077 6.30017 10.8905 6.19501 10.949 6.07587C11.0075 5.95674 11.0403 5.82636 11.0452 5.6934C11.05 5.56045 11.0269 5.42797 10.9773 5.30477L9.92663 2.50724C9.72293 1.96077 9.96237 1.75448 10.4627 2.044L13.0215 3.54229C13.1355 3.61228 13.2631 3.6567 13.3955 3.67254C13.528 3.68838 13.6622 3.67528 13.7892 3.63412C13.9162 3.59296 14.033 3.5247 14.1318 3.43395C14.2305 3.34319 14.3089 3.23204 14.3616 3.108L15.5803 0.382854Z" fill="#F4792C"/>
<path d="M34.6641 10.4945C37.0192 9.11204 40.8931 10.5416 40.8931 10.5416C41.4578 10.7515 41.8151 10.4366 41.6865 9.83947C41.5512 9.32162 41.3468 8.82485 41.0789 8.3629C40.2017 6.82717 38.758 5.70722 37.0654 5.24943C35.3728 4.79165 33.57 5.03352 32.0534 5.92185C30.5369 6.81017 29.431 8.27218 28.979 9.98625C28.5269 11.7003 28.7657 13.526 29.643 15.0618C29.9021 15.5284 30.2245 15.9559 30.6007 16.3321C31.0474 16.741 31.4942 16.5854 31.5978 15.9702C31.5978 15.9846 32.3054 11.8734 34.6641 10.4945Z" fill="#00B5D5"/>
</g>
<g clip-path="url(#clip1_513_5002)">
<path d="M132.105 30.0795C127.216 30.0795 124.173 27.295 124.173 21.406C124.173 15.517 127.216 12.691 132.105 12.691C136.993 12.691 140.03 15.4756 140.03 21.406C140.03 27.3365 136.987 30.0795 132.105 30.0795ZM127.542 9.40293L130.616 5.49867C131.126 4.84697 132.069 4.90622 132.793 5.60531C133.517 6.30441 133.517 7.23455 132.935 7.77368L129.376 11.0262C129.271 11.1429 129.142 11.2363 128.998 11.3001C128.855 11.364 128.699 11.397 128.542 11.397C128.385 11.397 128.229 11.364 128.086 11.3001C127.942 11.2363 127.814 11.1429 127.709 11.0262C127.585 10.9351 127.481 10.819 127.405 10.6856C127.329 10.5521 127.281 10.4042 127.266 10.2513C127.25 10.0984 127.267 9.94399 127.314 9.79789C127.362 9.65178 127.44 9.51725 127.542 9.40293ZM132.105 16.0147C129.494 16.0147 128.118 17.8217 128.118 21.406C128.118 24.9904 129.494 26.7381 132.105 26.7381C134.715 26.7381 136.085 24.9252 136.085 21.406C136.085 17.8869 134.709 16.0147 132.105 16.0147ZM133.641 9.40293L136.714 5.49867C137.224 4.84697 138.162 4.90622 138.885 5.60531C139.609 6.30441 139.609 7.23455 139.034 7.77368L135.474 11.0262C135.369 11.1429 135.241 11.2363 135.097 11.3001C134.953 11.364 134.798 11.397 134.641 11.397C134.484 11.397 134.328 11.364 134.185 11.3001C134.041 11.2363 133.912 11.1429 133.807 11.0262C133.683 10.9351 133.58 10.819 133.504 10.6856C133.427 10.5521 133.38 10.4042 133.364 10.2513C133.349 10.0984 133.365 9.94399 133.413 9.79789C133.461 9.65178 133.538 9.51725 133.641 9.40293Z" fill="#002957"/>
<path d="M146.627 17.5432C146.317 17.783 145.934 17.9105 145.542 17.9046C145.09 17.9046 144.657 17.7255 144.338 17.4066C144.018 17.0877 143.839 16.6552 143.839 16.2043C143.843 15.7651 144.01 15.3429 144.308 15.0194C145.322 13.8937 147.132 12.7029 150.24 12.7029C154.731 12.7029 157.407 14.9068 157.407 18.74V27.9941C157.379 28.484 157.165 28.9448 156.808 29.282C156.451 29.6192 155.979 29.807 155.487 29.807C154.996 29.807 154.524 29.6192 154.167 29.282C153.81 28.9448 153.596 28.484 153.568 27.9941C152.595 29.5463 150.999 30.0914 148.822 30.0914C145.263 30.0914 142.89 27.8815 142.89 24.629C142.89 21.2698 145.607 19.5339 148.757 19.5339H153.503V18.8822C153.503 17.2588 152.317 16.1747 150.211 16.1747C148.898 16.225 147.639 16.706 146.627 17.5432ZM153.539 23.5803V22.5672H149.303C147.713 22.5672 146.841 23.3256 146.841 24.623C146.841 25.9205 147.82 26.8329 149.849 26.8329C151.741 26.827 153.515 25.5947 153.515 23.5744L153.539 23.5803ZM148.366 9.40885L151.439 5.50459C151.949 4.85289 152.886 4.91214 153.61 5.61123C154.334 6.31033 154.334 7.24048 153.758 7.77961L150.199 11.0322C150.094 11.1489 149.965 11.2422 149.821 11.3061C149.678 11.3699 149.522 11.403 149.365 11.403C149.208 11.403 149.052 11.3699 148.909 11.3061C148.765 11.2422 148.637 11.1489 148.532 11.0322C148.405 10.9428 148.299 10.8279 148.22 10.6948C148.141 10.5617 148.091 10.4135 148.073 10.2598C148.055 10.1062 148.069 9.95042 148.116 9.80278C148.162 9.65513 148.239 9.51889 148.342 9.40292L148.366 9.40885Z" fill="#002957"/>
<path d="M183.249 14.8595V21.5482C183.242 21.8992 183.266 22.2501 183.32 22.5969C183.539 23.8647 184.299 24.8008 186.411 24.8008C188.979 24.8008 189.585 23.213 189.585 21.5482V14.8595C189.57 14.6012 189.609 14.3427 189.698 14.0998C189.787 13.8568 189.924 13.6346 190.102 13.4467C190.28 13.2587 190.495 13.109 190.733 13.0067C190.971 12.9044 191.227 12.8516 191.486 12.8516C191.745 12.8516 192.001 12.9044 192.239 13.0067C192.477 13.109 192.691 13.2587 192.869 13.4467C193.047 13.6346 193.185 13.8568 193.274 14.0998C193.363 14.3427 193.402 14.6012 193.387 14.8595L193.423 30.044C193.458 34.7422 190.457 36.875 185.55 36.875C182.703 36.875 180.282 35.5005 179.903 33.3203C179.523 31.1401 180.876 29.7656 184.981 28.2607C181.558 27.7868 180.027 25.8376 179.642 23.45C179.539 22.8293 179.49 22.201 179.493 21.5719V14.8832C179.479 14.6249 179.517 14.3664 179.606 14.1234C179.695 13.8805 179.833 13.6583 180.011 13.4703C180.189 13.2824 180.404 13.1327 180.641 13.0304C180.879 12.9281 181.136 12.8753 181.395 12.8753C181.654 12.8753 181.91 12.9281 182.148 13.0304C182.386 13.1327 182.6 13.2824 182.778 13.4703C182.956 13.6583 183.094 13.8805 183.183 14.1234C183.272 14.3664 183.311 14.6249 183.296 14.8832L183.249 14.8595ZM185.55 33.8179C187.923 33.8179 189.584 32.5205 189.703 29.5878L189.804 26.2642C188.422 29.2975 182.827 29.9137 183.231 32.2657C183.373 33.2255 184.18 33.8002 185.55 33.8002V33.8179Z" fill="#002957"/>
<path d="M102.869 30.044C102.905 34.7421 99.9029 36.875 95.0086 36.875C92.161 36.875 89.7464 35.5005 89.3668 33.3202C88.9871 31.14 90.3397 29.7655 94.4747 28.2607C91.0397 28.1126 88.5421 26.5248 87.848 22.6206C86.8751 16.9449 89.4914 12.7148 95.323 12.7148C99.2622 12.7148 101.961 14.7409 102.584 18.3549C102.726 19.117 102.8 19.8903 102.804 20.6655L102.869 30.044ZM95.0442 33.8001C97.4172 33.8001 99.1079 32.5027 99.1969 29.57L99.28 25.9561C97.7494 29.3212 92.3271 29.8959 92.7542 32.2479C92.8729 33.2255 93.6738 33.8001 95.0442 33.8001ZM99.0071 18.9888C98.663 16.9982 97.4705 15.9851 95.4476 15.9851C91.7931 15.9851 91.0694 19.3502 91.544 22.0933C91.8822 24.0839 93.0865 25.1681 95.1035 25.1681C98.7639 25.1622 99.4757 21.7259 99.0071 18.9829V18.9888Z" fill="#002957"/>
<path d="M120.951 30.044C120.951 34.7421 117.985 36.875 113.091 36.875C110.243 36.875 107.829 35.5005 107.449 33.3202C107.069 31.14 108.422 29.7655 112.557 28.2607C109.122 28.1126 106.624 26.5248 105.93 22.6206C104.957 16.9449 107.574 12.7148 113.405 12.7148C117.344 12.7148 120.044 14.7409 120.667 18.3549C120.809 19.117 120.882 19.8903 120.886 20.6655L120.951 30.044ZM113.126 33.8001C115.499 33.8001 117.19 32.5027 117.279 29.57L117.362 25.9561C115.832 29.3212 110.409 29.8959 110.836 32.2479C110.949 33.2255 111.756 33.8001 113.126 33.8001ZM117.083 18.9888C116.745 16.9982 115.553 15.9851 113.524 15.9851C109.869 15.9851 109.146 19.3502 109.614 22.0933C109.958 24.0839 111.163 25.1681 113.174 25.1681C116.846 25.1622 117.558 21.7259 117.083 18.9829V18.9888Z" fill="#002957"/>
<path d="M176.189 30.044C176.219 34.7421 173.223 36.875 168.328 36.875C165.481 36.875 163.066 35.5005 162.687 33.3202C162.307 31.14 163.66 29.7655 167.794 28.2607C164.36 28.1126 161.862 26.5248 161.168 22.6206C160.195 16.9449 162.811 12.7148 168.643 12.7148C172.582 12.7148 175.281 14.7409 175.904 18.3549C176.046 19.117 176.12 19.8903 176.124 20.6655L176.189 30.044ZM168.364 33.8001C170.737 33.8001 172.428 32.5027 172.487 29.57L172.57 25.9561C171.04 29.3212 165.617 29.8959 166.044 32.2479C166.205 33.2255 166.994 33.8001 168.364 33.8001ZM172.327 18.9888C171.983 16.9982 170.79 15.9851 168.767 15.9851C165.113 15.9851 164.389 19.3502 164.864 22.0933C165.202 24.0839 166.406 25.1681 168.423 25.1681C172.084 25.1622 172.796 21.7259 172.327 18.9829V18.9888Z" fill="#002957"/>
<path d="M196.11 27.5261C196.11 25.9028 196.976 25.1089 198.483 25.1089C199.99 25.1089 200.856 25.9028 200.856 27.5261C200.856 29.1494 200.02 29.8959 198.483 29.8959C196.947 29.8959 196.11 29.1198 196.11 27.5261Z" fill="#002957"/>
<path d="M207.732 14.8476C208.414 13.7989 209.939 12.6792 212.359 12.6792C217.283 12.6792 218.44 15.8192 218.44 18.9651V28C218.44 28.2527 218.389 28.5029 218.291 28.7355C218.192 28.9682 218.047 29.1784 217.864 29.3538C217.682 29.5292 217.466 29.666 217.23 29.7561C216.994 29.8462 216.741 29.8877 216.488 29.8781C216.234 29.8937 215.979 29.8564 215.739 29.7686C215.5 29.6808 215.281 29.5443 215.097 29.3678C214.913 29.1913 214.768 28.9786 214.67 28.7432C214.573 28.5078 214.525 28.2547 214.531 28V19.7057C214.531 17.6439 213.7 16.2339 211.345 16.2339C208.634 16.2339 207.732 17.8276 207.732 19.9604V28.0178C207.704 28.5169 207.487 28.9866 207.123 29.3302C206.759 29.6738 206.278 29.8653 205.777 29.8653C205.277 29.8653 204.795 29.6738 204.432 29.3302C204.068 28.9866 203.85 28.5169 203.823 28.0178V5.81267C203.808 5.54727 203.848 5.28167 203.939 5.0321C204.031 4.78254 204.172 4.55426 204.355 4.3612C204.538 4.16815 204.759 4.01438 205.003 3.90929C205.248 3.8042 205.511 3.75 205.777 3.75C206.043 3.75 206.307 3.8042 206.551 3.90929C206.796 4.01438 207.016 4.16815 207.199 4.3612C207.382 4.55426 207.524 4.78254 207.615 5.0321C207.707 5.28167 207.747 5.54727 207.732 5.81267V14.8476Z" fill="#002957"/>
<path d="M226.609 14.8476V23.2663C226.609 24.9252 227.203 26.5189 229.866 26.5189C232.53 26.5189 233.088 24.9252 233.088 23.2663V14.8476C233.073 14.5822 233.113 14.3166 233.204 14.067C233.296 13.8174 233.437 13.5892 233.62 13.3961C233.803 13.203 234.024 13.0493 234.268 12.9442C234.513 12.8391 234.776 12.7849 235.042 12.7849C235.308 12.7849 235.572 12.8391 235.816 12.9442C236.061 13.0493 236.281 13.203 236.464 13.3961C236.647 13.5892 236.789 13.8174 236.88 14.067C236.972 14.3166 237.012 14.5822 236.997 14.8476V23.2663C236.997 26.821 235.656 30.0618 229.878 30.0618C224.1 30.0618 222.718 26.8033 222.718 23.2663V14.8476C222.718 14.3306 222.923 13.8348 223.289 13.4693C223.655 13.1038 224.152 12.8984 224.669 12.8984C225.187 12.8984 225.683 13.1038 226.049 13.4693C226.415 13.8348 226.621 14.3306 226.621 14.8476H226.609Z" fill="#002957"/>
<path d="M58.3635 16.4354C58.1414 16.4488 57.9189 16.4167 57.7097 16.341C57.5004 16.2653 57.3089 16.1477 57.1469 15.9954C56.9849 15.843 56.8558 15.6592 56.7675 15.4552C56.6793 15.2512 56.6338 15.0313 56.6338 14.8091C56.6338 14.5869 56.6793 14.367 56.7675 14.163C56.8558 13.959 56.9849 13.7752 57.1469 13.6228C57.3089 13.4705 57.5004 13.3529 57.7097 13.2772C57.9189 13.2016 58.1414 13.1694 58.3635 13.1828H59.1229V11.2277C59.1229 7.8626 61.3713 4.82332 66.0461 4.82332C66.4977 4.82332 66.9308 5.00246 67.2501 5.32134C67.5694 5.64021 67.7488 6.0727 67.7488 6.52365C67.7488 6.97461 67.5694 7.4071 67.2501 7.72598C66.9308 8.04486 66.4977 8.224 66.0461 8.224C64.0528 8.224 63.0383 9.34374 63.0383 10.9374V13.1828H65.4648C65.6869 13.1694 65.9094 13.2016 66.1186 13.2772C66.3278 13.3529 66.5194 13.4705 66.6814 13.6228C66.8434 13.7752 66.9725 13.959 67.0607 14.163C67.149 14.367 67.1945 14.5869 67.1945 14.8091C67.1945 15.0313 67.149 15.2512 67.0607 15.4552C66.9725 15.6592 66.8434 15.843 66.6814 15.9954C66.5194 16.1477 66.3278 16.2653 66.1186 16.341C65.9094 16.4167 65.6869 16.4488 65.4648 16.4354H63.0383V28.0178C63.0377 28.2708 62.9861 28.5211 62.8865 28.7538C62.7869 28.9864 62.6415 29.1967 62.4587 29.3719C62.276 29.5472 62.0599 29.6839 61.8231 29.774C61.5863 29.864 61.3338 29.9055 61.0806 29.8959C60.826 29.9115 60.5709 29.8743 60.3314 29.7864C60.092 29.6986 59.8733 29.5621 59.6894 29.3856C59.5054 29.2091 59.3601 28.9965 59.2626 28.761C59.1651 28.5256 59.1175 28.2725 59.1229 28.0178V16.4354H58.3635Z" fill="#002957"/>
<path d="M73.6042 14.8476V23.2782C73.6042 24.943 74.1974 26.5307 76.867 26.5307C79.5367 26.5307 80.0884 24.943 80.0884 23.2782V14.8476C80.0884 14.3291 80.2946 13.8318 80.6618 13.4651C81.0289 13.0985 81.5269 12.8925 82.0461 12.8925C82.5654 12.8925 83.0633 13.0985 83.4304 13.4651C83.7976 13.8318 84.0038 14.3291 84.0038 14.8476V23.2782C84.0038 26.8329 82.6631 30.0795 76.8848 30.0795C71.1066 30.0795 69.7124 26.821 69.7124 23.2782V14.8476C69.6978 14.5822 69.7375 14.3166 69.8291 14.067C69.9208 13.8174 70.0624 13.5892 70.2453 13.3961C70.4283 13.203 70.6487 13.0493 70.8932 12.9442C71.1377 12.8391 71.4011 12.7849 71.6672 12.7849C71.9334 12.7849 72.1968 12.8391 72.4412 12.9442C72.6857 13.0493 72.9062 13.203 73.0891 13.3961C73.2721 13.5892 73.4137 13.8174 73.5053 14.067C73.5969 14.3166 73.6366 14.5822 73.622 14.8476H73.6042ZM71.9015 8.92305C71.9015 7.58411 72.5541 7.00943 73.711 7.00943C74.8678 7.00943 75.5263 7.60188 75.5263 8.92305C75.5263 10.1554 74.8737 10.7715 73.711 10.7715C72.5482 10.7715 71.8778 10.1435 71.8778 8.9112L71.9015 8.92305ZM78.457 8.92305C78.457 7.58411 79.1095 7.00943 80.2723 7.00943C81.4351 7.00943 82.0817 7.60188 82.0817 8.92305C82.0817 10.1554 81.4292 10.7715 80.2723 10.7715C79.1155 10.7715 78.457 10.1435 78.457 8.9112V8.92305Z" fill="#002957"/>
</g>
<defs>
<clipPath id="clip0_513_5002">
<rect width="46.7844" height="40" fill="white"/>
</clipPath>
<clipPath id="clip1_513_5002">
<rect width="180.366" height="33.125" fill="white" transform="translate(56.6338 3.75)"/>
</clipPath>
</defs>
</svg>
